{
    "$type": "ThunderRoad.ItemData, Assembly-CSharp",
    "id": "JiraSpawner",
    "saveFolder": "Bas",
    "version": 4,
    "prefabAddress": "Lyneca.JiraAndSorcery.Spawner",
    "pooledCount": 0,
    "type": "Misc",
    "slot": "Small",
    "mass": 1,
    "drag": 0.1,
    "angularDrag": 0.05,
    "manaRegenMultiplier": 1.0,
    "spellChargeSpeedPlayerMultiplier": 1.0,
    "spellChargeSpeedNPCMultiplier": 1.0,
    "collisionMaxOverride": 0,
    "collisionEnterOnly": false,
    "collisionNoMinVelocityCheck": false,
    "ignoredCollisionRagdollParts": [],
    "forceLayer": "None",
    "snapAudioContainerAddress": null,
    "flyFromThrow": false,
    "flyRotationSpeed": 3.0,
    "flyThrowAngle": 0.0,
    "telekinesisSafeDistance": 1.0,
    "telekinesisSpinEnabled": true,
    "telekinesisThrowRatio": 1.0,
    "damageTransfer": 0,
    "grippable": true,
    "customSnaps": [],
    "modules": [
        {
            "$type": "JiraAndSorcery.JiraSpawnerModule, JiraAndSorcery"
        }
    ],
    "colliderGroups": [
        {
            "transformName": "ColliderGroup",
            "colliderGroupId": "PropDefault"
        }
    ],
    "damagers": [
        {
            "transformName": "Blunt",
            "damagerID": "Mace1H"
        }
    ],
    "Interactables": [
        {
            "transformName": "Handle",
            "interactableId": "ObjectHandleLight",
            "overrideHandPose": false,
            "handPoseId": "HandleLarge"
        }
    ],
    "effectHinges": [],
    "whooshs": [],
    "localizationId": "Jira Spawner",
    "displayName": "Jira Spawner",
    "description": "Manage your jira tickets from inside Blade and Sorcery!",
    "author": "lyneca",
    "price": 0.0,
    "purchasable": true,
    "tier": 3,
    "levelRequired": 0,
    "isStackable": false,
    "categoryPath": [
        "Exotics"
    ],
    "iconEffectId": null,
    "iconAddress": null
}
